E:\dev\bitbucket\kns-message-generator\src\main\java\kprod\model\EventMessage.java
E:\dev\bitbucket\kns-message-generator\src\main\java\kprod\ProducerController.java
E:\dev\bitbucket\kns-message-generator\src\main\java\kprod\Application.java
